{
    "apiKey": "AIzaSyDlK2Hc3UgGBlpTLetuSG49KDBxeHKe89M",
    "options": {
        "method": "GET",
        "hostname": "maps.googleapis.com",
        "port": null,
        "path": "/maps/api/directions/json?"
    }
}